id;acc;alt;bea;lat;lon;prov;spd;sat;datetime;serial;tid;plat;plat_version;bat
1;Toys;Front-line action-items;76300;programming;driver Managed Handmade Plastic Pants;Creative Rustic Rubber Towels;99276;23492;2020-05-12T11:50:33;Synchronised one-to-one users;payment cross-platform;cultivate;Plastic Fork digital;88638
2;payment programming;Refined Steel Ball Hawaii Togo;28784;open-source markets;time-frame;Agent Concrete program;1142;31712;2020-05-12T09:20:02;port Alley Licensed Rubber Shoes;wireless local area network;Rhode Island Assistant;copy;64423
3;Savings Account;Highway National;11341;Chicken USB;Pataca;primary copy;69906;54334;2020-05-11T16:20:31;bypass hub;sensor Extended Gorgeous;Tuna impactful;withdrawal compressing Wyoming;26601
4;infomediaries Fantastic Frozen Gloves National;driver;66110;Clothing;Washington;Pants Towels teal;74120;19467;2020-05-11T15:03:57;port salmon cross-platform;Idaho;Designer;reinvent;22555
5;architect leverage Orchestrator;Bedfordshire;60661;index Georgia;Massachusetts Manat;primary Kids virtual;25197;87522;2020-05-11T23:55:00;withdrawal;back up Somali Shilling;Architect;Specialist Berkshire synthesizing;88068
6;Niue Junction Metrics;magenta;36831;Human parse;solution Lakes;Intelligent;43857;2643;2020-05-12T08:39:16;SAS Unbranded Auto Loan Account;South Dakota foreground metrics;toolset;Canadian Dollar Gorgeous Cambridgeshire;42478
7;web-enabled clear-thinking;Small Metal Soap optimize;38835;Burgs;incentivize implement Incredible;Shoals visionary;44376;43218;2020-05-11T16:49:40;Practical Licensed Rubber Computer multi-byte;Cambridgeshire;Gorgeous Cotton Soap;connect Money Market Account;64163
8;bypassing;online model;30889;Turkmenistan Handmade;Future;empowering;46825;93775;2020-05-11T16:36:39;teal;disintermediate;Concrete parse Borders;Romania bus;64016
9;Automated Burundi;Product;7400;Investment Account Greens;Response Lead Customer-focused;Berkshire Mouse homogeneous;94079;20544;2020-05-11T15:12:10;Generic Granite Tuna;Assistant auxiliary SMS;quantify multi-byte;pink;98555
10;compress;Solutions strategic Swiss Franc;86277;portals Unbranded;program;Metal;71535;45352;2020-05-12T02:44:43;Analyst;encoding mobile;scalable Greece;application Berkshire Borders;1812
